######################
#                    #
#                    #
#                    #
#                    #
#                    #
#                    #
#                    #
#          D  S      #
#   DD   S           #
#         D          #
#                    #
#              U     #
#                    #
#                    #
#                    #
#                    #
#    S               #
#          D         #
#                    #
#                    #
######################